{
    "/js/app.js": "/js/app.js",
    "/css/app.css": "/css/app.css",
    "/js/vendor/breakpoints/breakpoints.js": "/js/vendor/breakpoints/breakpoints.js",
    "/js/vendor/babel-external-helpers/babel-external-helpers.js": "/js/vendor/babel-external-helpers/babel-external-helpers.js",
    "/js/vendor/jquery/jquery.js": "/js/vendor/jquery/jquery.js",
    "/js/vendor/tether/tether.js": "/js/vendor/tether/tether.js",
    "/js/vendor/bootstrap/bootstrap.js": "/js/vendor/bootstrap/bootstrap.js",
    "/js/vendor/animsition/animsition.js": "/js/vendor/animsition/animsition.js",
    "/js/vendor/mousewheel/jquery.mousewheel.js": "/js/vendor/mousewheel/jquery.mousewheel.js",
    "/js/vendor/asscrollbar/jquery-asScrollbar.js": "/js/vendor/asscrollbar/jquery-asScrollbar.js",
    "/js/vendor/asscrollable/jquery-asScrollable.js": "/js/vendor/asscrollable/jquery-asScrollable.js",
    "/js/vendor/ashoverscroll/jquery-asHoverScroll.js": "/js/vendor/ashoverscroll/jquery-asHoverScroll.js",
    "/js/vendor/switchery/switchery.min.js": "/js/vendor/switchery/switchery.min.js",
    "/js/vendor/intro-js/intro.js": "/js/vendor/intro-js/intro.js",
    "/js/vendor/screenfull/screenfull.js": "/js/vendor/screenfull/screenfull.js",
    "/js/vendor/slidepanel/jquery-slidePanel.js": "/js/vendor/slidepanel/jquery-slidePanel.js",
    "/css/all.css": "/css/all.css"
}